<?xml version="1.0" encoding="UTF-8"?>
<!DOCTYPE svg PUBLIC "-//W3C//DTD SVG 1.1//EN" "http://www.w3.org/Graphics/SVG/1.1/DTD/svg11.dtd">
<svg xmlns="http://www.w3.org/2000/svg" version="1.1" width="512px" height="512px" style="shape-rendering:geometricPrecision; text-rendering:geometricPrecision; image-rendering:optimizeQuality; fill-rule:evenodd; clip-rule:evenodd" xmlns:xlink="http://www.w3.org/1999/xlink">
<g><path style="opacity:0.965" fill="#fefffe" d="M 511.5,296.5 C 511.5,297.167 511.5,297.833 511.5,298.5C 501.958,330.147 492.625,361.981 483.5,394C 499.244,415.738 508.577,439.904 511.5,466.5C 511.5,469.167 511.5,471.833 511.5,474.5C 340.833,474.5 170.167,474.5 -0.5,474.5C -0.5,464.833 -0.5,455.167 -0.5,445.5C 6.30665,413.52 25.3067,392.354 56.5,382C 68.7465,379.75 81.0798,378.084 93.5,377C 37.1807,345.219 5.84734,297.053 -0.5,232.5C -0.5,224.167 -0.5,215.833 -0.5,207.5C 4.76662,147.114 32.1,99.6141 81.5,65C 133.193,34.6118 187.526,28.9452 244.5,48C 304.73,73.2386 342.23,117.739 357,181.5C 369.802,251.1 349.969,309.267 297.5,356C 332.057,352.312 366.724,349.478 401.5,347.5C 398.287,331.555 395.287,315.555 392.5,299.5C 392.833,298.5 393.167,297.5 393.5,296.5C 403.039,294.559 412.539,292.559 422,290.5C 426.585,312.759 430.918,335.092 435,357.5C 442.851,361.675 450.684,365.675 458.5,369.5C 465.439,342.054 473.439,315.054 482.5,288.5C 492.065,291.578 501.731,294.244 511.5,296.5 Z M 174.5,67.5 C 224.691,67.5194 265.857,86.5194 298,124.5C 328.767,167.517 336.767,214.517 322,265.5C 304.769,315.063 270.935,347.23 220.5,362C 160.41,376.522 109.243,361.355 67,316.5C 28.7179,269.067 20.3846,216.734 42,159.5C 68.5583,103.437 112.725,72.7706 174.5,67.5 Z M 167.5,128.5 C 199.209,125.787 226.042,135.787 248,158.5C 273.044,191.891 276.044,227.224 257,264.5C 236.316,295.59 207.149,309.756 169.5,307C 125.333,298.833 99.1667,272.667 91,228.5C 88.6212,185.242 106.788,154.075 145.5,135C 152.81,132.281 160.143,130.114 167.5,128.5 Z M 372.5,379.5 C 421.786,376.127 455.786,397.127 474.5,442.5C 327.168,443.667 179.834,443.833 32.5,443C 39.5353,426.304 51.8686,415.637 69.5,411C 170.676,400.75 271.676,390.25 372.5,379.5 Z"/></g>
<g><path style="opacity:0.963" fill="#fefffe" d="M 167.5,97.5 C 225.644,94.6391 267.144,119.306 292,171.5C 308.214,215.873 302.214,256.873 274,294.5C 237.523,334.761 193.023,347.261 140.5,332C 105.975,320.142 81.8088,297.309 68,263.5C 52.8675,219.306 58.8675,178.306 86,140.5C 107.831,116.002 134.998,101.668 167.5,97.5 Z M 167.5,128.5 C 160.143,130.114 152.81,132.281 145.5,135C 106.788,154.075 88.6212,185.242 91,228.5C 99.1667,272.667 125.333,298.833 169.5,307C 207.149,309.756 236.316,295.59 257,264.5C 276.044,227.224 273.044,191.891 248,158.5C 226.042,135.787 199.209,125.787 167.5,128.5 Z"/></g>
<g><path style="opacity:0.955" fill="#fefffe" d="M 164.5,157.5 C 174.833,157.5 185.167,157.5 195.5,157.5C 195.667,180.169 195.5,202.836 195,225.5C 183.667,236.833 172.333,248.167 161,259.5C 153.5,252 146,244.5 138.5,237C 147,228.5 155.5,220 164,211.5C 164.5,193.503 164.667,175.503 164.5,157.5 Z"/></g>
</svg>
